Model: "model"
_________________________________________________________________
Layer (type)                 Output Shape              Param #   
=================================================================
input_1 (InputLayer)         [(None, 90, 2)]           0         
_________________________________________________________________
conv1d (Conv1D)              (None, 84, 6)             90        
_________________________________________________________________
average_pooling1d (AveragePo (None, 28, 6)             0         
_________________________________________________________________
conv1d_1 (Conv1D)            (None, 22, 12)            516       
_________________________________________________________________
average_pooling1d_1 (Average (None, 7, 12)             0         
_________________________________________________________________
flatten (Flatten)            (None, 84)                0         
_________________________________________________________________
dense (Dense)                (None, 20)                1700      
=================================================================
Total params: 2,306
Trainable params: 2,306
Non-trainable params: 0
_________________________________________________________________
