loss,accuracy,val_loss,val_accuracy
2.8881280422210693,0.10453622043132782,3.1928060054779053,0.08225107938051224
2.7656469345092773,0.13520650565624237,3.3006622791290283,0.08085247874259949
2.706249952316284,0.14644549787044525,3.283538579940796,0.09910090267658234
2.6756579875946045,0.15815843641757965,3.3053300380706787,0.08871129155158997
2.6443846225738525,0.1645226776599884,3.274970531463623,0.1037629023194313
2.623269557952881,0.16912661492824554,3.2563300132751465,0.10702630877494812
2.599562406539917,0.17616790533065796,3.289578437805176,0.10183150321245193
2.58050799369812,0.18408937752246857,3.2789533138275146,0.10709290951490402
2.561371326446533,0.19180771708488464,3.2524261474609375,0.09483849257230759
2.53959321975708,0.1935003399848938,3.2587080001831055,0.10709290951490402
2.5223937034606934,0.20162491500377655,3.242992877960205,0.09397269040346146
2.5111515522003174,0.20406228303909302,3.253932476043701,0.10869131237268448
2.4925498962402344,0.21096818149089813,3.2542858123779297,0.1120213121175766
2.4800121784210205,0.21557210385799408,3.2379391193389893,0.10476190596818924
2.467721939086914,0.22031144797801971,3.282405138015747,0.11068931221961975
2.446579933166504,0.22457684576511383,3.2693440914154053,0.11275391280651093
2.435110330581665,0.23006093502044678,3.2551395893096924,0.11235431581735611
2.421682834625244,0.23337846994400024,3.2595419883728027,0.11734931915998459
2.4061436653137207,0.23635748028755188,3.250687599182129,0.1234099268913269
2.390529155731201,0.24197697639465332,3.284477949142456,0.12560772895812988
2.3708534240722656,0.24874746799468994,3.234231948852539,0.12800532579421997
2.3492488861083984,0.25504401326179504,3.254225254058838,0.13206793367862701
2.3374171257019043,0.2555179297924042,3.2476933002471924,0.13659673929214478
2.3209850788116455,0.26445499062538147,3.2226955890655518,0.13599734008312225
2.299387216567993,0.2718347907066345,3.222299814224243,0.14338994026184082
2.2777726650238037,0.27454298734664917,3.2465577125549316,0.13872793316841125
2.2503929138183594,0.2834800183773041,3.1902925968170166,0.1513819545507431
2.238140821456909,0.29092755913734436,3.198662042617798,0.14931735396385193
2.21453595161438,0.29735952615737915,3.226827383041382,0.14405594766139984
2.197592258453369,0.3014895021915436,3.1823647022247314,0.15357975661754608
2.18009877204895,0.3048747479915619,3.1978073120117188,0.1428571492433548
2.159867286682129,0.3135409653186798,3.2074177265167236,0.15078255534172058
2.139789342880249,0.31888964772224426,3.182643175125122,0.15917415916919708
2.1248111724853516,0.32430601119995117,3.1736867427825928,0.1594405621290207
2.110198497772217,0.32430601119995117,3.164217710494995,0.1571761518716812
2.091614007949829,0.3316858410835266,3.172895669937134,0.15291374921798706
2.07270884513855,0.3378469944000244,3.1723854541778564,0.15604396164417267
2.0626375675201416,0.34448206424713135,3.150256395339966,0.15824176371097565
2.0424163341522217,0.3483412265777588,3.1602532863616943,0.16017316281795502
2.026982069015503,0.35355451703071594,3.147841691970825,0.16663336753845215
2.010004758834839,0.35734596848487854,3.150883913040161,0.16610056161880493
2.0012338161468506,0.3593771159648895,3.1324329376220703,0.16976356506347656
1.98393714427948,0.36689233779907227,3.124203681945801,0.1705627739429474
1.9751309156417847,0.36804333329200745,3.1035969257354736,0.17522478103637695
1.9522138833999634,0.37068381905555725,3.141376495361328,0.1704961657524109
1.942476749420166,0.37433987855911255,3.141294240951538,0.16896437108516693
1.9252787828445435,0.37989166378974915,3.1371419429779053,0.1710289716720581
1.9032843112945557,0.38578200340270996,3.113769054412842,0.17042957246303558
1.8969552516937256,0.39106297492980957,3.1128902435302734,0.17795537412166595
1.8826147317886353,0.3901827931404114,3.1490676403045654,0.16883116960525513
1.87093985080719,0.395192950963974,3.1070799827575684,0.18381617963314056
1.849655270576477,0.4025050699710846,3.1147916316986084,0.18161837756633759
1.8479697704315186,0.4032498300075531,3.1098239421844482,0.18541458249092102
1.8272716999053955,0.4046039283275604,3.139478921890259,0.17995338141918182
1.8145902156829834,0.41178062558174133,3.1161885261535645,0.18448218703269958
1.7999770641326904,0.4168584942817688,3.1264026165008545,0.18135197460651398
1.7915102243423462,0.418009489774704,3.090271472930908,0.18727938830852509
1.7767664194107056,0.4201083183288574,3.143117904663086,0.18028637766838074
1.7620744705200195,0.42369669675827026,3.0913617610931396,0.19513820111751556
1.753139853477478,0.42924848198890686,3.092149019241333,0.19220779836177826
1.7427681684494019,0.43229520320892334,3.132617473602295,0.18368297815322876
1.732069492340088,0.43419092893600464,3.124336004257202,0.1847485899925232
1.7148054838180542,0.4436695873737335,3.135411500930786,0.18301698565483093
1.7118974924087524,0.4417061507701874,3.1631197929382324,0.1822843849658966
1.7024263143539429,0.446445494890213,3.1306278705596924,0.18554778397083282
1.6793729066848755,0.4552471339702606,3.1681246757507324,0.18867798149585724
1.6730008125305176,0.4534190893173218,3.1810200214385986,0.18428237736225128
1.6719366312026978,0.4531482756137848,3.116835832595825,0.1930069923400879
1.649259328842163,0.4601895809173584,3.1637167930603027,0.1822177767753601
1.6399637460708618,0.4653351306915283,3.1406421661376953,0.18261738121509552
1.6356837749481201,0.4600541591644287,3.1561989784240723,0.19493839144706726
1.6265758275985718,0.4689911901950836,3.1852195262908936,0.18867798149585724
1.6127738952636719,0.4725795388221741,3.196690082550049,0.1906759887933731
1.607730507850647,0.4691266119480133,3.1885924339294434,0.19294039905071259
1.5892162322998047,0.4758971035480499,3.1768178939819336,0.19260738790035248
1.584175944328308,0.47989165782928467,3.199716329574585,0.1903429925441742
1.5745803117752075,0.48672986030578613,3.2342257499694824,0.18827839195728302
1.5634737014770508,0.4861205220222473,3.1669440269470215,0.1848151832818985
1.5508360862731934,0.4920785427093506,3.204214572906494,0.1904095858335495
1.548834204673767,0.49085983633995056,3.1922879219055176,0.19527140259742737
1.5319024324417114,0.4968178868293762,3.2438199520111084,0.18961039185523987
1.5177363157272339,0.5006770491600037,3.1975035667419434,0.18807858228683472
1.5158330202102661,0.5000677108764648,3.2140955924987793,0.1850815862417221
1.505699872970581,0.5035883784294128,3.215797185897827,0.1901431828737259
1.5020545721054077,0.5085307955741882,3.234926223754883,0.1874125897884369
1.4890217781066895,0.5098848938941956,3.2313356399536133,0.18821178376674652
1.4801324605941772,0.5105619430541992,3.20345139503479,0.18981018662452698
1.4726704359054565,0.5157074928283691,3.2309393882751465,0.19453880190849304
1.4599831104278564,0.5185511112213135,3.238671064376831,0.19107559323310852
1.4520565271377563,0.5238320827484131,3.250180244445801,0.1903429925441742
1.4426583051681519,0.5253893136978149,3.2119390964508057,0.19480518996715546
1.4275051355361938,0.5301963686943054,3.264270782470703,0.19180819392204285
1.4339231252670288,0.5283682942390442,3.2770488262176514,0.19247418642044067
1.4162909984588623,0.5377115607261658,3.286285161972046,0.19127538800239563
1.4049527645111084,0.5369668006896973,3.299243450164795,0.18907758593559265
1.3999103307724,0.5397427082061768,3.2879843711853027,0.18847818672657013
1.3909016847610474,0.5414353609085083,3.3103480339050293,0.1905427873134613
1.3846429586410522,0.5477995872497559,3.280294418334961,0.19473859667778015
1.3781894445419312,0.5455653071403503,3.2852635383605957,0.1875457912683487
1.3650696277618408,0.5469194054603577,3.3238701820373535,0.18974359333515167
