loss,accuracy,val_loss,val_accuracy
2.9654674530029297,0.06355421990156174,2.9950859546661377,0.06531226634979248
2.9338886737823486,0.08493975549936295,2.991495132446289,0.07103084772825241
2.905734062194824,0.10753011703491211,3.0104713439941406,0.07223476469516754
2.882581949234009,0.10256024450063705,2.998375177383423,0.0818660631775856
2.851247787475586,0.12228915840387344,3.0178890228271484,0.07795334607362747
2.8310599327087402,0.1234939768910408,3.0193541049957275,0.0809631273150444
2.8086109161376953,0.13057228922843933,2.995147705078125,0.08562829345464706
2.7897114753723145,0.13900601863861084,3.0218896865844727,0.08171557635068893
2.765019655227661,0.14201806485652924,3.011631488800049,0.0845748707652092
2.7541260719299316,0.13509036600589752,3.0111162662506104,0.0823175311088562
2.7377402782440186,0.141716867685318,3.004471778869629,0.09450715035200119
2.71806263923645,0.15331324934959412,3.0070838928222656,0.09586154669523239
2.7065446376800537,0.1563252955675125,2.9944448471069336,0.09450715035200119
2.6969153881073,0.15737952291965485,2.987163543701172,0.09285176545381546
2.6827354431152344,0.16415663063526154,3.015899896621704,0.0890895426273346
2.6691458225250244,0.1615963876247406,2.9982261657714844,0.09149736911058426
2.6556241512298584,0.1753012090921402,2.996838331222534,0.088638074696064
2.6425814628601074,0.17620481550693512,2.9799678325653076,0.0908954069018364
2.625948429107666,0.18027108907699585,2.992098808288574,0.09826937317848206
2.6129696369171143,0.1837349385023117,2.970170497894287,0.10428893566131592
2.6046557426452637,0.18554216623306274,2.9694225788116455,0.09721595048904419
2.595334768295288,0.1882530152797699,2.964341402053833,0.10218209028244019
2.576240301132202,0.19412650167942047,2.972852945327759,0.09556057304143906
2.5686237812042236,0.19759036600589752,2.979794979095459,0.10097818076610565
2.558558702468872,0.20075301826000214,2.9664459228515625,0.10022573173046112
2.5490939617156982,0.19924698770046234,2.9664416313171387,0.10097818076610565
2.5396242141723633,0.2058734893798828,2.9659583568573,0.10744921118021011
2.5226423740386963,0.21099397540092468,2.962529420852661,0.10985703766345978
2.5184531211853027,0.21009035408496857,2.968348503112793,0.10639578849077225
2.497492790222168,0.21972891688346863,2.9806911945343018,0.10142964869737625
2.4865572452545166,0.2293674647808075,2.9805715084075928,0.09932279586791992
2.4802048206329346,0.22545181214809418,2.9777772426605225,0.09586154669523239
2.464001178741455,0.23207831382751465,2.9824068546295166,0.10413844883441925
2.4558956623077393,0.2295180708169937,2.961717367172241,0.10278404504060745
2.441643714904785,0.23960843682289124,2.952165126800537,0.10549285262823105
2.427004098892212,0.24503012001514435,2.957303524017334,0.11000752449035645
2.419013738632202,0.24126505851745605,2.9406943321228027,0.10669676214456558
2.4099175930023193,0.24141566455364227,2.96366548538208,0.10203160345554352
2.3921940326690674,0.2528614401817322,2.9429523944854736,0.10805116593837738
2.3800957202911377,0.25271084904670715,2.9568827152252197,0.10564333945512772
2.370992660522461,0.26415663957595825,2.9272384643554688,0.11587660014629364
2.349390983581543,0.2753012180328369,2.9401867389678955,0.10428893566131592
2.3322057723999023,0.27108433842658997,2.9190900325775146,0.11632806807756424
2.320918083190918,0.27635541558265686,2.9082229137420654,0.11843491345643997
2.3096184730529785,0.27319276332855225,2.9056813716888428,0.12114371359348297
2.2923531532287598,0.2820783257484436,2.894610643386841,0.12084273993968964
2.2773799896240234,0.28855422139167786,2.8893661499023438,0.11948833614587784
2.259598970413208,0.28990963101387024,2.9214839935302734,0.12204664945602417
2.24611234664917,0.2896084189414978,2.8812005519866943,0.12716327607631683
2.237626552581787,0.2944277226924896,2.8876559734344482,0.12204664945602417
2.2072651386260986,0.30602410435676575,2.899141788482666,0.1255079060792923
2.1934778690338135,0.3085843324661255,2.8903090953826904,0.1282166987657547
2.169265031814575,0.3215361535549164,2.8666179180145264,0.13784800469875336
2.165376663208008,0.31656625866889954,2.8728837966918945,0.12987208366394043
2.155595302581787,0.3186747133731842,2.8699371814727783,0.1349887102842331
2.134925127029419,0.3222891688346863,2.8815574645996094,0.1354401856660843
2.1137611865997314,0.33042168617248535,2.9032838344573975,0.13107599318027496
2.1005001068115234,0.33734938502311707,2.8842217922210693,0.13393528759479523
2.099097967147827,0.34186747670173645,2.8590197563171387,0.13438676297664642
2.0872490406036377,0.341566264629364,2.86637282371521,0.14115875959396362
2.074760675430298,0.3430722951889038,2.8809943199157715,0.1417607218027115
2.0675852298736572,0.34186747670173645,2.8673665523529053,0.14236268401145935
2.045196294784546,0.34638553857803345,2.840381622314453,0.14191120862960815
2.0355913639068604,0.35165661573410034,2.860538959503174,0.13077501952648163
2.0110280513763428,0.3665662705898285,2.86482572555542,0.13483822345733643
2.017488956451416,0.36159637570381165,2.8649187088012695,0.13649360835552216
2.0030159950256348,0.3552710711956024,2.8519175052642822,0.13920240104198456
1.9942127466201782,0.36084336042404175,2.8461740016937256,0.13890142738819122
1.9799113273620605,0.3697289228439331,2.8518404960632324,0.13709555566310883
1.963812232017517,0.37454819679260254,2.8385071754455566,0.14356659352779388
1.9601274728775024,0.38072288036346436,2.8497605323791504,0.14356659352779388
1.9536782503128052,0.38373494148254395,2.8614673614501953,0.14236268401145935
1.9308278560638428,0.38539156317710876,2.849726438522339,0.13844996690750122
1.9339195489883423,0.38237953186035156,2.8546547889709473,0.14251317083835602
1.9132063388824463,0.3902108371257782,2.852759599685669,0.13784800469875336
1.9072164297103882,0.3878012001514435,2.854726552963257,0.1376975178718567
1.9051581621170044,0.39608433842658997,2.846759796142578,0.14537246525287628
1.8942523002624512,0.3932228982448578,2.8674838542938232,0.14025583863258362
1.8690005540847778,0.40903612971305847,2.855926275253296,0.13694506883621216
1.8710157871246338,0.40602409839630127,2.8553926944732666,0.13784800469875336
1.8588306903839111,0.4055722951889038,2.861560821533203,0.14537246525287628
1.8544076681137085,0.4109939634799957,2.8474645614624023,0.14371708035469055
1.8459218740463257,0.41641566157341003,2.850916862487793,0.14386756718158722
1.826542615890503,0.4147590398788452,2.8657331466674805,0.13483822345733643
1.8163375854492188,0.4305723011493683,2.8568532466888428,0.1386004537343979
1.8080723285675049,0.43177711963653564,2.8607866764068604,0.1408577859401703
1.8062831163406372,0.4260542094707489,2.851630687713623,0.1381489783525467
1.7810932397842407,0.4359939694404602,2.8739304542541504,0.1399548500776291
1.7705707550048828,0.4304216802120209,2.868403434753418,0.14281414449214935
1.7707501649856567,0.4406626522541046,2.863705635070801,0.13920240104198456
1.760165810585022,0.44382530450820923,2.8652827739715576,0.14145974814891815
1.746148705482483,0.4521084427833557,2.870354175567627,0.14537246525287628
1.7363927364349365,0.44307228922843933,2.8681697845458984,0.14206169545650482
1.7375982999801636,0.4421686828136444,2.874727487564087,0.14657637476921082
1.7234135866165161,0.45391565561294556,2.866955041885376,0.14732882380485535
1.7140992879867554,0.45376506447792053,2.8703534603118896,0.14055681228637695
1.7061854600906372,0.45391565561294556,2.879389524459839,0.14492098987102509
1.708795189857483,0.45707830786705017,2.8792574405670166,0.14100827276706696
1.693938970565796,0.4588855504989624,2.876258611679077,0.14477050304412842
1.6858046054840088,0.4617469906806946,2.872217893600464,0.15048909187316895
